{
    "configurations": [
        {
            "name": "application_title",
            "type": "String",
            "default": "Tiger Application Suite",
            "humanName": "Application Title",
            "remarks": "This will appear on the browser title bar"
        }
    ]
}
